tb_pipe.vcd
$date
	Thu Apr 25 22:25:24 2024
$end
$version
	Icarus Verilog
$end
$timescale
	1s
$end
$scope module tb $end
$var reg 1 ! clk $end
$var reg 1 " rst_n $end
$scope module DUT $end
$var wire 1 ! clk $end
$var wire 1 " rst_n $end
$var wire 1 # stall $end
$var wire 32 $ snex [31:0] $end
$var wire 32 % instr_out [31:0] $end
$var wire 32 & instr [31:0] $end
$var wire 32 ' ex [31:0] $end
$var wire 5 ( destination [4:0] $end
$var wire 9 ) control_signals_1 [8:0] $end
$var wire 1 * PC_write $end
$var wire 32 + MemOut [31:0] $end
$var wire 32 , Fwd_mem [31:0] $end
$var wire 32 - B [31:0] $end
$var wire 2 . ALU_SrcB_fwd [1:0] $end
$var wire 2 / ALU_SrcA_fwd [1:0] $end
$var wire 32 0 ALU_Out [31:0] $end
$var wire 32 1 A [31:0] $end
$var reg 73 2 EX_MEM [72:0] $end
$var reg 169 3 ID_EX [168:0] $end
$var reg 32 4 IF_ID [31:0] $end
$var reg 71 5 MEM_WB [70:0] $end
$scope module H1 $end
$var wire 1 6 MemRead_ID_EX $end
$var wire 5 7 rs_IF_ID [4:0] $end
$var wire 5 8 rt_ID_EX [4:0] $end
$var wire 5 9 rt_IF_ID [4:0] $end
$var wire 1 # stall $end
$var wire 1 * PC_write $end
$upscope $end
$scope module Stage4 $end
$var wire 1 : MemRead $end
$var wire 1 ; MemWrite $end
$var wire 32 < data [31:0] $end
$var wire 32 = data_address [31:0] $end
$var reg 32 > MemOut [31:0] $end
$upscope $end
$scope module f $end
$var wire 1 ? RegWrite_EX_MEM $end
$var wire 1 @ RegWrite_MEM_WB $end
$var wire 5 A rd_EX_MEM [4:0] $end
$var wire 5 B rd_MEM_WB [4:0] $end
$var wire 5 C rs_ID_EX [4:0] $end
$var wire 5 D rt_ID_EX [4:0] $end
$var wire 2 E ALU_SrcB_fwd [1:0] $end
$var wire 2 F ALU_SrcA_fwd [1:0] $end
$upscope $end
$scope module stage1 $end
$var wire 1 * PC_write $end
$var wire 1 ! clk $end
$var wire 1 " rst_n $end
$var reg 32 G PC [31:0] $end
$var reg 32 H instr [31:0] $end
$upscope $end
$scope module stage2 $end
$var wire 32 I IF_ID [31:0] $end
$var wire 1 ! clk $end
$var wire 32 J instr_out [31:0] $end
$var wire 5 K rd_old [4:0] $end
$var wire 1 L reg_write_old $end
$var wire 1 # stall $end
$var wire 32 M write_data [31:0] $end
$var wire 32 N snex [31:0] $end
$var wire 32 O ex [31:0] $end
$var wire 9 P control_signals [8:0] $end
$var wire 1 Q RegWrite $end
$var wire 1 R RegDst $end
$var wire 1 S MemtoReg $end
$var wire 1 T MemWrite $end
$var wire 1 U MemRead $end
$var wire 32 V B [31:0] $end
$var wire 2 W ALUSrcB [1:0] $end
$var wire 2 X ALUOp [1:0] $end
$var wire 32 Y A [31:0] $end
$var parameter 32 Z amt $end
$scope module C $end
$var wire 6 [ opcode [5:0] $end
$var reg 2 \ ALUOp [1:0] $end
$var reg 2 ] ALUSrcB [1:0] $end
$var reg 1 U MemRead $end
$var reg 1 T MemWrite $end
$var reg 1 S MemtoReg $end
$var reg 1 R RegDst $end
$var reg 1 Q RegWrite $end
$upscope $end
$scope module R $end
$var wire 1 ! clk $end
$var wire 5 ^ rd [4:0] $end
$var wire 1 L reg_write $end
$var wire 5 _ rs [4:0] $end
$var wire 5 ` rt [4:0] $end
$var wire 32 a write_data [31:0] $end
$var reg 32 b A [31:0] $end
$var reg 32 c B [31:0] $end
$upscope $end
$upscope $end
$scope module stage3 $end
$var wire 32 d A [31:0] $end
$var wire 2 e ALUOp [1:0] $end
$var wire 2 f ALU_SrcA_fwd [1:0] $end
$var wire 2 g ALU_SrcB_ctrl [1:0] $end
$var wire 2 h ALU_SrcB_fwd [1:0] $end
$var wire 32 i B [31:0] $end
$var wire 6 j F [5:0] $end
$var wire 32 k Fwd_mem [31:0] $end
$var wire 32 l Fwd_wb [31:0] $end
$var wire 32 m ex [31:0] $end
$var wire 32 n snex [31:0] $end
$var wire 1 o Zero $end
$var wire 32 p ALU_Out [31:0] $end
$var reg 32 q ALU_Op1 [31:0] $end
$var reg 32 r ALU_Op2 [31:0] $end
$var reg 32 s MUX_temp [31:0] $end
$scope module ALU $end
$var wire 2 t ALUOp [1:0] $end
$var wire 6 u F [5:0] $end
$var wire 32 v in_1 [31:0] $end
$var wire 32 w in_2 [31:0] $end
$var wire 4 x op [3:0] $end
$var wire 1 o Zero $end
$var wire 32 y ALUOut [31:0] $end
$scope module A1 $end
$var wire 2 z ALUOp [1:0] $end
$var wire 6 { F [5:0] $end
$var reg 4 | Operation [3:0] $end
$upscope $end
$scope module A2 $end
$var wire 4 } ctrl [3:0] $end
$var wire 32 ~ in_1 [31:0] $end
$var wire 32 !" in_2 [31:0] $end
$var reg 32 "" result [31:0] $end
$var reg 1 o zero $end
$upscope $end
$upscope $end
$upscope $end
$upscope $end
$upscope $end
$enddefinitions $end
$comment Show the parameter values. $end
$dumpall
b10000 Z
$end
#0
$dumpvars
b0 ""
b0 !"
b0 ~
b10 }
b10 |
b0 {
b10 z
b0 y
b10 x
b0 w
b0 v
b0 u
b10 t
b0 s
b0 r
b0 q
b0 p
1o
b0 n
b0 m
b0 l
b0 k
b0 j
b0 i
b0 h
b0 g
b0 f
b10 e
b0 d
b0 c
b0 b
b0 a
b0 `
b0 _
b0 ^
b0 ]
b10 \
b0 [
b0 Y
b10 X
b0 W
b0 V
0U
0T
0S
1R
1Q
b10000010 P
b0 O
b0 N
b0 M
0L
b0 K
b0 J
b0 I
b1000010000010000000000000010 H
b0 G
b0 F
b0 E
b0 D
b0 C
b0 B
b0 A
0@
0?
b0 >
b0 =
b0 <
0;
0:
b0 9
b0 8
b0 7
06
b0 5
b0 4
b0 3
b0 2
b0 1
b0 0
b0 /
b0 .
b0 -
b0 ,
b0 +
1*
b10000010 )
b0 (
b0 '
b1000010000010000000000000010 &
b0 %
b0 $
0#
0"
0!
$end
#5
b0 e
b0 t
b0 z
b101011 )
b101011 P
1S
1U
b10 W
b10 ]
b0 X
b0 \
0R
b1 -
b1 V
b1 c
b110 1
b110 Y
b110 b
b10 7
b1 9
b10 $
b10 N
b10 '
b10 O
b10 [
b10 _
b1 `
b1000010011000000000010 &
b1000010011000000000010 H
b10000010 3
b1000010000010000000000000010 %
b1000010000010000000000000010 J
b1000010000010000000000000010 4
b1000010000010000000000000010 I
b100 G
1"
1!
#10
0!
#15
0*
b10 x
b10 |
b10 }
1#
b0 e
b0 t
b0 z
b0 )
b0 P
0o
b1000 0
b1000 p
b1000 y
b1000 ""
b10 r
b10 w
b10 !"
b110 q
b110 v
b110 ~
b10 s
b1 (
0S
0U
b0 W
b0 ]
b10 X
b10 \
1R
b1 1
b1 Y
b1 b
b1100001001100000000000000010 &
b1100001001100000000000000010 H
1?
b1 8
16
b10 C
b1 D
b110 d
b1 i
b10 j
b10 u
b10 {
b10 n
b10 m
b10 g
b1 7
b11000000000010 $
b11000000000010 N
b11000000000010 '
b11000000000010 O
b0 [
b1 _
b1000 G
b10 2
b100001000001000000000000001000000000000000000000000000000010000000000000000000000000000000100000000000000000000000000000011000000000000000000000000000000001000101011 3
b1000010011000000000010 %
b1000010011000000000010 J
b1000010011000000000010 4
b1000010011000000000010 I
1!
#20
0!
#25
1*
b100100 )
b100100 P
1o
0#
b10 /
b10 F
b10 f
b10 .
b10 E
b10 h
b0 0
b0 p
b0 y
b0 ""
b0 r
b0 w
b0 !"
b1001 +
b1001 >
b0 q
b0 v
b0 ~
b1 s
0Q
1T
b10 W
b10 ]
b0 X
b0 \
0R
b0 -
b0 V
b0 c
1@
1L
b1 A
b1000 l
b1000 =
b1 <
1:
06
b1 C
b1 d
b11000000000010 n
b11000000000010 m
b0 g
b110 9
b10 $
b10 N
b10 '
b10 O
b11 [
b110 `
b10 5
b100001000000000000000000000000000010001011 2
b100001001100000000001000000000000000000011000000000010000000000000000000110000000000100000000000000000000000000000000100000000000000000000000000000001000000000 3
b1100001001100000000000000010 %
b1100001001100000000000000010 J
b1100001001100000000000000010 4
b1100001001100000000000000010 I
1!
#30
0!
#35
0o
b10 0
b10 p
b10 y
b10 ""
b10 r
b10 w
b10 !"
b0 q
b0 v
b0 ~
b1 /
b1 F
b1 f
b0 .
b0 E
b0 h
b10000100 ,
b10000100 M
b10000100 a
b10000100 k
b0 +
b0 >
b10 s
b110 (
b111001100100000000000000 &
b111001100100000000000000 H
b1 B
b1 K
b1 ^
0?
b0 l
b0 =
0:
b110 8
b110 D
b0 i
b10 n
b10 m
b10 g
b1100 G
b1000000000000000000000000100001000000000000000000000000000000100111 5
b100001000000000000000000000000000000000000 2
b110000100110000000000000001000000000000000000000000000000010000000000000000000000000000000100000000000000000000000000000000100000000000000000000000000000000000100100 3
1!
#40
b10000100 1
b10000100 Y
b10000100 b
0!
#45
b110 x
b110 |
b110 }
b10 e
b10 t
b10 z
b0 /
b0 F
b0 f
b10000010 )
b10000010 P
b10000010 0
b10000010 p
b10000010 y
b10000010 ""
b0 ,
b0 M
b0 a
b0 k
b10000100 q
b10000100 v
b10000100 ~
1Q
0T
b0 W
b0 ]
b10 X
b10 \
1R
b10010110010011011010 1
b10010110010011011010 Y
b10010110010011011010 b
0@
0L
b110 A
b10 l
b10 =
b0 <
1;
b10000100 d
b111 7
b100000000000000 $
b100000000000000 N
b100000000000000 '
b100000000000000 O
b0 [
b111 _
b101010010010000000000010110 &
b101010010010000000000010110 H
b1000000000000000000000000100001000000000000000000000000000000000000 5
b110000000000000000000000000000000100100 2
b110000100110000000000000001000000000000000000000000000000010000000000000000000000000000000100000000000000000000000001000010000000000000000000000000000000000000100100 3
b111001100100000000000000 %
b111001100100000000000000 J
b111001100100000000000000 4
b111001100100000000000000 I
b10000 G
1!
#50
0!
#55
b11 e
b11 t
b11 z
b111010010 )
b111010010 P
b10010110010011011010 0
b10010110010011011010 p
b10010110010011011010 y
b10010110010011011010 ""
b0 r
b0 w
b0 !"
b10010110010011011010 q
b10010110010011011010 v
b10010110010011011010 ~
b1 x
b1 |
b1 }
b0 s
b1 W
b1 ]
b11 X
b11 \
0R
b10010001100001011 1
b10010001100001011 Y
b10010001100001011 b
bx &
bx H
b110 B
b110 K
b110 ^
b10000010 l
b10000010 =
b111 C
b10010110010011011010 d
b0 j
b0 u
b0 {
b100000000000000 n
b100000000000000 m
b0 g
b1010 7
b1001 9
b10110 $
b10110 N
b10110 '
b10110 O
b1 [
b1010 _
b1001 `
b10100 G
b110000000000000000000000000000110000000000000000000000000000000000000 5
b110000000000000000000000000100000100100 2
b11100110010000000000000000000000000000000100000000000000000000000000000001000000000000000000000000001001011001001101101000000000000000000000000000000000010000010 3
b101010010010000000000010110 %
b101010010010000000000010110 J
b101010010010000000000010110 4
b101010010010000000000010110 I
1!
#60
0!
#65
b0 e
b0 t
b0 z
b0 )
b0 P
b10010001100100001 0
b10010001100100001 p
b10010001100100001 y
b10010001100100001 ""
b10110 r
b10110 w
b10110 !"
b10010001100001011 q
b10010001100001011 v
b10010001100001011 ~
b10 x
b10 |
b10 }
b10110 s
b0 (
0Q
b0 W
b0 ]
b0 X
b0 \
bx -
bx V
bx c
bx 1
bx Y
bx b
1?
b10010110010011011010 l
b10010110010011011010 =
0;
b1001 8
b1010 C
b1001 D
b10010001100001011 d
b10110 j
b10110 u
b10110 {
b10110 n
b10110 m
b1 g
bx 7
bx 9
bx $
bx N
b0xxxxxxxxxxxxxxxx '
b0xxxxxxxxxxxxxxxx O
bx [
bx _
bx `
b110000000000000100101100100110110100010 2
b10101001001000000000001011000000000000000000000000000010110000000000000000000000000000101100000000000000001001000110000101100000000000000000000000000000000111010010 3
bx %
bx J
bx 4
bx I
b11000 G
1!
#70
0!
#75
1o
bx /
bx F
bx f
bx .
bx E
bx h
b0 0
b0 p
b0 y
b0 ""
b0 r
b0 w
b0 !"
b0 q
b0 v
b0 ~
bx s
bx (
1@
1L
b0 A
b10010001100100001 l
b10010001100100001 =
bx 8
bx C
bx D
bx d
bx i
bx j
bx u
bx {
bx n
bx m
b0 g
b11100 G
b110000000000000000000000000000110000000000000000000000000000000000010 5
b100100011001000010010 2
bx0000000000000000xxxxxxxxxxxxxxxxxxxxxxxxxxxxxxxxxxxxxxxxxxxxxxxxxxxxxxxxxxxxxxxxxxxxxxxxxxxxxxxx000000000 3
1!
#80
0!
#85
b0x /
b0x F
b0x f
b0x .
b0x E
b0x h
b0 B
b0 K
b0 ^
bx A
0?
b0 l
b0 =
bx <
b10 5
bx000000000000000000000000000000000000 2
b100000 G
1!
#90
0!
#95
0o
bx 0
bx p
bx y
bx ""
bx q
bx v
bx ~
bx r
bx w
bx !"
b0 /
b0 F
b0 f
b0 .
b0 E
b0 h
bx B
0@
bx K
bx ^
0L
b100100 G
bx000000000000000000000000000000000000 5
1!
#100
0!
#105
bx l
bx =
bx0000 2
b101000 G
1!
